{
	"hosting": {
		"public": "dist/public",
		"headers": [
			{
				"source": "**",
				"headers": [
					{
						"key": "Content-Encoding",
						"value": "gzip"
					},
					{
						"key": "Cache-Control",
						"value": "public, max-age=6000, s-max-age=36000"
					}
				]
			}
		],
		"rewrites": [
			{
				"source": "**/**",
				"function": "app-next"
			}
		],
		"predeploy": "yarn build-public"
	},
	"functions": {
		"source": "dist/functions",
		"predeploy": "yarn build-funcs && yarn build-app && yarn copy-deps"
	}
}
